EESchema Schematic File Version 4
LIBS:shim1-cache
EELAYER 29 0
EELAYER END
$Descr A3 16535 11693
encoding utf-8
Sheet 4 5
Title ""
Date ""
Rev ""
Comp ""
Comment1 ""
Comment2 ""
Comment3 ""
Comment4 ""
$EndDescr
Text GLabel 1800 2400 0    50   Input ~ 0
ice_cdone
Text GLabel 1800 2500 0    50   Input ~ 0
ice_crest
$Comp
L shim1:usb_3v3 #PWR047
U 1 1 564B33C0
P 2500 1400
F 0 "#PWR047" H 2500 1250 50  0001 C CNN
F 1 "usb_3v3" H 2500 1540 50  0000 C CNN
F 2 "" H 2500 1400 60  0000 C CNN
F 3 "" H 2500 1400 60  0000 C CNN
	1    2500 1400
	1    0    0    -1  
$EndComp
$Comp
L shim1:usb_3v3 #PWR048
U 1 1 564B33C6
P 2000 1900
F 0 "#PWR048" H 2000 1750 50  0001 C CNN
F 1 "usb_3v3" H 2000 2040 50  0000 C CNN
F 2 "" H 2000 1900 60  0000 C CNN
F 3 "" H 2000 1900 60  0000 C CNN
	1    2000 1900
	1    0    0    -1  
$EndComp
$Comp
L shim1:usb_3v3 #PWR049
U 1 1 564B33ED
P 2100 4000
F 0 "#PWR049" H 2100 3850 50  0001 C CNN
F 1 "usb_3v3" H 2100 4140 50  0000 C CNN
F 2 "" H 2100 4000 60  0000 C CNN
F 3 "" H 2100 4000 60  0000 C CNN
	1    2100 4000
	1    0    0    -1  
$EndComp
Text GLabel 1700 6400 0    50   Input ~ 0
usb_clk
Text GLabel 4700 4400 2    50   BiDi ~ 0
bdbus0
Text GLabel 4700 4800 2    50   BiDi ~ 0
bdbus1
Text GLabel 4700 4700 2    50   BiDi ~ 0
bdbus2
Text GLabel 4700 4100 2    50   BiDi ~ 0
bdbus3
Text GLabel 4700 4300 2    50   BiDi ~ 0
bdbus4
Text GLabel 4700 4200 2    50   BiDi ~ 0
bdbus5
Text GLabel 4700 4600 2    50   BiDi ~ 0
bdbus6
Text GLabel 4700 4500 2    50   BiDi ~ 0
bdbus7
Text GLabel 1700 6500 0    50   Input ~ 0
fifo_clk
Text GLabel 4700 6500 2    50   BiDi ~ 0
adbus0
Text GLabel 4700 6400 2    50   BiDi ~ 0
adbus1
Text GLabel 4700 6300 2    50   BiDi ~ 0
adbus2
Text GLabel 4700 6200 2    50   BiDi ~ 0
adbus3
Text GLabel 4700 6100 2    50   BiDi ~ 0
adbus4
Text GLabel 4700 6000 2    50   BiDi ~ 0
adbus5
Text GLabel 4700 5900 2    50   BiDi ~ 0
adbus6
Text GLabel 4700 5800 2    50   BiDi ~ 0
adbus7
Text GLabel 4700 5700 2    50   Input ~ 0
rxf#
Text GLabel 4700 5600 2    50   Input ~ 0
txe#
Text GLabel 4700 5400 2    50   Output ~ 0
rd#
Text GLabel 4700 5200 2    50   Output ~ 0
wr#
Text GLabel 4700 5000 2    50   Output ~ 0
oe#
Text GLabel 4700 4900 2    50   Output ~ 0
siwu
Text Notes 5250 4500 0    50   ~ 0
bdbus used for RS232\nserial on icestick
Text Notes 5250 5750 0    50   ~ 0
Only A bus can be used\nfor fast synchronous FIFO
Text GLabel 1800 2900 0    50   Input ~ 0
epuck_cam_clk
Text GLabel 1800 3000 0    50   Input ~ 0
epuck_pclk
Wire Wire Line
	1800 2400 2000 2400
Wire Wire Line
	1800 2500 2100 2500
Wire Wire Line
	2100 2300 2100 2500
Connection ~ 2100 2500
Wire Wire Line
	2000 2300 2000 2400
Connection ~ 2000 2400
Wire Wire Line
	2500 1600 2600 1600
Wire Wire Line
	2500 1400 2500 1500
Wire Wire Line
	2600 1500 2500 1500
Connection ~ 2500 1500
Wire Wire Line
	2000 1900 2000 1950
Wire Wire Line
	2100 2000 2100 1950
Wire Wire Line
	2100 1950 2000 1950
Connection ~ 2000 1950
Wire Wire Line
	2100 4200 2200 4200
Wire Wire Line
	2100 4000 2100 4100
Wire Wire Line
	2200 4100 2100 4100
Connection ~ 2100 4100
Wire Wire Line
	1700 6400 2200 6400
Wire Wire Line
	4200 4900 4700 4900
Wire Wire Line
	4200 5000 4700 5000
Wire Wire Line
	1700 6500 2000 6500
Wire Wire Line
	4200 5200 4700 5200
Wire Wire Line
	4200 5400 4700 5400
Wire Wire Line
	4200 5600 4700 5600
Wire Wire Line
	4200 5700 4700 5700
Wire Wire Line
	4200 5800 4700 5800
Wire Wire Line
	4200 5900 4700 5900
Wire Wire Line
	4200 6000 4700 6000
Wire Wire Line
	4200 6100 4700 6100
Wire Wire Line
	4200 6200 4700 6200
Wire Wire Line
	4200 6300 4700 6300
Wire Wire Line
	4200 6400 4700 6400
Wire Wire Line
	4200 6500 4700 6500
Wire Notes Line
	5100 4100 5200 4100
Wire Notes Line
	5200 4100 5200 4800
Wire Notes Line
	5200 4800 5100 4800
Wire Notes Line
	5100 4900 5200 4900
Wire Notes Line
	5200 4900 5200 6500
Wire Notes Line
	5200 6500 5100 6500
Wire Wire Line
	1800 3000 2600 3000
Wire Wire Line
	1800 2900 2600 2900
Text GLabel 4700 1500 2    50   Input ~ 0
epuck_y0
Text GLabel 4700 1600 2    50   Input ~ 0
epuck_y1
Text GLabel 4700 1700 2    50   Input ~ 0
epuck_y2
Text GLabel 4700 1800 2    50   Input ~ 0
epuck_y3
Text GLabel 4700 1900 2    50   Input ~ 0
epuck_y4
Text GLabel 4700 2000 2    50   Input ~ 0
epuck_y5
Text GLabel 4700 2100 2    50   Input ~ 0
epuck_y6
Text GLabel 4700 2200 2    50   Input ~ 0
epuck_y7
Text GLabel 4700 2300 2    50   BiDi ~ 0
epuck_cam_reset
Text GLabel 4700 2400 2    50   Input ~ 0
epuck_vsync
Text GLabel 4700 2500 2    50   Input ~ 0
epuck_href
Wire Wire Line
	4200 1500 4700 1500
Wire Wire Line
	4200 1600 4700 1600
Wire Wire Line
	4200 1700 4700 1700
Wire Wire Line
	4200 1800 4700 1800
Wire Wire Line
	4200 1900 4700 1900
Wire Wire Line
	4200 2000 4700 2000
Wire Wire Line
	4200 2100 4700 2100
Wire Wire Line
	4200 2200 4700 2200
Wire Wire Line
	4200 2300 4700 2300
Wire Wire Line
	4200 2400 4700 2400
Wire Wire Line
	4200 2500 4700 2500
Wire Notes Line
	5400 1500 5500 1500
Wire Notes Line
	5500 1500 5500 2500
Wire Notes Line
	5500 2500 5400 2500
Text Notes 5550 2000 0    50   ~ 0
Interface to\nepuck camera
Text GLabel 4700 2700 2    50   Output ~ 0
fpga_spiclk
Text GLabel 4700 2800 2    50   Output ~ 0
fpga_spimosi
Text GLabel 4700 2900 2    50   Input ~ 0
fpga_spimiso
Text GLabel 4700 3000 2    50   Output ~ 0
fpga_spicsn
Wire Wire Line
	4200 2700 4700 2700
Wire Wire Line
	4200 2800 4700 2800
Wire Wire Line
	4200 2900 4700 2900
Wire Wire Line
	4200 3000 4700 3000
Wire Notes Line
	5400 2700 5500 2700
Wire Notes Line
	5500 2700 5500 3000
Wire Notes Line
	5500 3000 5400 3000
Text Notes 5550 2950 0    50   ~ 0
Alterate SPI to epuck, \nusing FPGA as passthrough\nand level shifter
Text GLabel 7600 2900 0    50   Input ~ 0
xu4_spi_1.clk
Text GLabel 7600 2300 0    50   Input ~ 0
xu4_spi_1.mosi
Text GLabel 7600 2400 0    50   Output ~ 0
xu4_spi_1.miso
$Comp
L shim1:R_Small R42
U 1 1 564B56C9
P 7850 2400
F 0 "R42" V 7900 2500 50  0000 L CNN
F 1 "0R" V 7850 2350 50  0000 L CNN
F 2 "IPC7351-Nominal:RESC1608X50" H 7850 2400 60  0001 C CNN
F 3 "" H 7850 2400 60  0000 C CNN
F 4 "Res 0603 1%" H 7850 2400 60  0001 C CNN "MPN"
	1    7850 2400
	0    1    1    0   
$EndComp
Wire Wire Line
	7600 2400 7750 2400
Wire Wire Line
	7950 2400 8200 2400
Wire Wire Line
	7600 2300 8200 2300
Text GLabel 7600 2500 0    50   Input ~ 0
xu4_spi_1.csn
Wire Wire Line
	7600 2500 8200 2500
Wire Wire Line
	7600 2900 8200 2900
$Comp
L shim1:xu4_1v8 #PWR050
U 1 1 564B5A10
P 8000 1050
F 0 "#PWR050" H 8000 900 50  0001 C CNN
F 1 "xu4_1v8" H 8000 1190 50  0000 C CNN
F 2 "" H 8000 1050 60  0000 C CNN
F 3 "" H 8000 1050 60  0000 C CNN
	1    8000 1050
	1    0    0    -1  
$EndComp
Wire Wire Line
	8000 1050 8000 1200
Wire Wire Line
	8000 1200 8200 1200
Wire Wire Line
	8000 1300 8200 1300
Connection ~ 8000 1200
$Comp
L shim1:xu4_1v8 #PWR051
U 1 1 564B5B2E
P 7400 1050
F 0 "#PWR051" H 7400 900 50  0001 C CNN
F 1 "xu4_1v8" H 7400 1190 50  0000 C CNN
F 2 "" H 7400 1050 60  0000 C CNN
F 3 "" H 7400 1050 60  0000 C CNN
	1    7400 1050
	1    0    0    -1  
$EndComp
$Comp
L shim1:GND #PWR052
U 1 1 564B5CB3
P 7600 1450
F 0 "#PWR052" H 7600 1200 50  0001 C CNN
F 1 "GND" H 7600 1300 50  0000 C CNN
F 2 "" H 7600 1450 60  0000 C CNN
F 3 "" H 7600 1450 60  0000 C CNN
	1    7600 1450
	1    0    0    -1  
$EndComp
Wire Wire Line
	7400 1050 7400 1100
Wire Wire Line
	7600 1150 7600 1100
Wire Wire Line
	7600 1100 7400 1100
Connection ~ 7400 1100
Wire Wire Line
	7600 1350 7600 1400
Connection ~ 7600 1400
Text GLabel 10600 1200 2    50   BiDi ~ 0
xu4_xe.int10
Text GLabel 10600 1300 2    50   BiDi ~ 0
xu4_xe.int11
Text GLabel 10600 1400 2    50   BiDi ~ 0
xu4_xe.int13
Text GLabel 10600 1500 2    50   BiDi ~ 0
xu4_xe.int14
Text GLabel 10600 1600 2    50   BiDi ~ 0
xu4_xe.int15
Text GLabel 10600 1700 2    50   BiDi ~ 0
xu4_xe.int16
Text GLabel 10600 1800 2    50   BiDi ~ 0
xu4_xe.int17
Text GLabel 10600 1900 2    50   BiDi ~ 0
xu4_xe.int20
Text GLabel 10600 2000 2    50   BiDi ~ 0
xu4_xe.int21
Text GLabel 10600 2100 2    50   BiDi ~ 0
xu4_xe.int22
Text GLabel 10600 2200 2    50   BiDi ~ 0
xu4_xe.int23
Text GLabel 10600 2300 2    50   BiDi ~ 0
xu4_xe.int25
Wire Wire Line
	9800 1200 10600 1200
Wire Wire Line
	9800 1300 10600 1300
Wire Wire Line
	9800 1400 10600 1400
Wire Wire Line
	9800 1500 10600 1500
Wire Wire Line
	9800 1600 10600 1600
Wire Wire Line
	9800 1700 10600 1700
Wire Wire Line
	9800 1800 10600 1800
Wire Wire Line
	9800 1900 10600 1900
Wire Wire Line
	9800 2000 10600 2000
Wire Wire Line
	9800 2100 10600 2100
Wire Wire Line
	9800 2200 10600 2200
Wire Wire Line
	9800 2300 10600 2300
$Comp
L shim1:usb_3v3 #PWR053
U 1 1 564B9623
P 8000 3850
F 0 "#PWR053" H 8000 3700 50  0001 C CNN
F 1 "usb_3v3" H 8000 3990 50  0000 C CNN
F 2 "" H 8000 3850 60  0000 C CNN
F 3 "" H 8000 3850 60  0000 C CNN
	1    8000 3850
	1    0    0    -1  
$EndComp
Wire Wire Line
	8000 4100 8200 4100
Wire Wire Line
	8000 3850 8000 4000
Wire Wire Line
	8200 4000 8000 4000
Connection ~ 8000 4000
$Comp
L shim1:WS2812B U11
U 1 1 564BA761
P 13950 2500
F 0 "U11" H 13950 2550 50  0000 C CNN
F 1 "WS2812B" H 13950 2225 50  0000 C CNN
F 2 "custom:WS2812B" H 13950 2500 50  0001 C CNN
F 3 "" H 13950 2500 50  0000 C CNN
F 4 "Worldsemi" H 13950 2500 60  0001 C CNN "Manuf"
F 5 "WS2812B" H 13950 2500 60  0001 C CNN "MPN"
	1    13950 2500
	1    0    0    -1  
$EndComp
$Comp
L shim1:WS2812B U12
U 1 1 564BA7C1
P 13950 2900
F 0 "U12" H 13950 2950 50  0000 C CNN
F 1 "WS2812B" H 13950 2625 50  0000 C CNN
F 2 "custom:WS2812B" H 13950 2900 50  0001 C CNN
F 3 "" H 13950 2900 50  0000 C CNN
F 4 "Worldsemi" H 13950 2900 60  0001 C CNN "Manuf"
F 5 "WS2812B" H 13950 2900 60  0001 C CNN "MPN"
	1    13950 2900
	1    0    0    -1  
$EndComp
$Comp
L shim1:WS2812B U13
U 1 1 564BA818
P 13950 3300
F 0 "U13" H 13950 3350 50  0000 C CNN
F 1 "WS2812B" H 13950 3025 50  0000 C CNN
F 2 "custom:WS2812B" H 13950 3300 50  0001 C CNN
F 3 "" H 13950 3300 50  0000 C CNN
F 4 "Worldsemi" H 13950 3300 60  0001 C CNN "Manuf"
F 5 "WS2812B" H 13950 3300 60  0001 C CNN "MPN"
	1    13950 3300
	1    0    0    -1  
$EndComp
$Comp
L shim1:WS2812B U14
U 1 1 564BA872
P 13950 3700
F 0 "U14" H 13950 3750 50  0000 C CNN
F 1 "WS2812B" H 13950 3425 50  0000 C CNN
F 2 "custom:WS2812B" H 13950 3700 50  0001 C CNN
F 3 "" H 13950 3700 50  0000 C CNN
F 4 "Worldsemi" H 13950 3700 60  0001 C CNN "Manuf"
F 5 "WS2812B" H 13950 3700 60  0001 C CNN "MPN"
	1    13950 3700
	1    0    0    -1  
$EndComp
$Comp
L shim1:WS2812B U15
U 1 1 564BA8CF
P 13950 4100
F 0 "U15" H 13950 4150 50  0000 C CNN
F 1 "WS2812B" H 13950 3825 50  0000 C CNN
F 2 "custom:WS2812B" H 13950 4100 50  0001 C CNN
F 3 "" H 13950 4100 50  0000 C CNN
F 4 "Worldsemi" H 13950 4100 60  0001 C CNN "Manuf"
F 5 "WS2812B" H 13950 4100 60  0001 C CNN "MPN"
	1    13950 4100
	1    0    0    -1  
$EndComp
$Comp
L shim1:WS2812B U16
U 1 1 564BA92E
P 13950 4500
F 0 "U16" H 13950 4550 50  0000 C CNN
F 1 "WS2812B" H 13950 4225 50  0000 C CNN
F 2 "custom:WS2812B" H 13950 4500 50  0001 C CNN
F 3 "" H 13950 4500 50  0000 C CNN
F 4 "Worldsemi" H 13950 4500 60  0001 C CNN "Manuf"
F 5 "WS2812B" H 13950 4500 60  0001 C CNN "MPN"
	1    13950 4500
	1    0    0    -1  
$EndComp
$Comp
L shim1:WS2812B U17
U 1 1 564BA98F
P 13950 4900
F 0 "U17" H 13950 4950 50  0000 C CNN
F 1 "WS2812B" H 13950 4625 50  0000 C CNN
F 2 "custom:WS2812B" H 13950 4900 50  0001 C CNN
F 3 "" H 13950 4900 50  0000 C CNN
F 4 "Worldsemi" H 13950 4900 60  0001 C CNN "Manuf"
F 5 "WS2812B" H 13950 4900 60  0001 C CNN "MPN"
	1    13950 4900
	1    0    0    -1  
$EndComp
$Comp
L shim1:WS2812B U18
U 1 1 564BA9F2
P 13950 5300
F 0 "U18" H 13950 5350 50  0000 C CNN
F 1 "WS2812B" H 13950 5025 50  0000 C CNN
F 2 "custom:WS2812B" H 13950 5300 50  0001 C CNN
F 3 "" H 13950 5300 50  0000 C CNN
F 4 "Worldsemi" H 13950 5300 60  0001 C CNN "Manuf"
F 5 "WS2812B" H 13950 5300 60  0001 C CNN "MPN"
	1    13950 5300
	1    0    0    -1  
$EndComp
$Comp
L shim1:WS2812B U19
U 1 1 564BAA53
P 13950 5700
F 0 "U19" H 13950 5750 50  0000 C CNN
F 1 "WS2812B" H 13950 5425 50  0000 C CNN
F 2 "custom:WS2812B" H 13950 5700 50  0001 C CNN
F 3 "" H 13950 5700 50  0000 C CNN
F 4 "Worldsemi" H 13950 5700 60  0001 C CNN "Manuf"
F 5 "WS2812B" H 13950 5700 60  0001 C CNN "MPN"
	1    13950 5700
	1    0    0    -1  
$EndComp
$Comp
L shim1:WS2812B U20
U 1 1 564BABFE
P 13950 6100
F 0 "U20" H 13950 6150 50  0000 C CNN
F 1 "WS2812B" H 13950 5825 50  0000 C CNN
F 2 "custom:WS2812B" H 13950 6100 50  0001 C CNN
F 3 "" H 13950 6100 50  0000 C CNN
F 4 "Worldsemi" H 13950 6100 60  0001 C CNN "Manuf"
F 5 "WS2812B" H 13950 6100 60  0001 C CNN "MPN"
	1    13950 6100
	1    0    0    -1  
$EndComp
$Comp
L shim1:WS2812B U21
U 1 1 564BAC8A
P 13950 6500
F 0 "U21" H 13950 6550 50  0000 C CNN
F 1 "WS2812B" H 13950 6225 50  0000 C CNN
F 2 "custom:WS2812B" H 13950 6500 50  0001 C CNN
F 3 "" H 13950 6500 50  0000 C CNN
F 4 "Worldsemi" H 13950 6500 60  0001 C CNN "Manuf"
F 5 "WS2812B" H 13950 6500 60  0001 C CNN "MPN"
	1    13950 6500
	1    0    0    -1  
$EndComp
$Comp
L shim1:WS2812B U22
U 1 1 564BADBA
P 13950 6900
F 0 "U22" H 13950 6950 50  0000 C CNN
F 1 "WS2812B" H 13950 6550 50  0000 C CNN
F 2 "custom:WS2812B" H 13950 6900 50  0001 C CNN
F 3 "" H 13950 6900 50  0000 C CNN
F 4 "Worldsemi" H 13950 6900 60  0001 C CNN "Manuf"
F 5 "WS2812B" H 13950 6900 60  0001 C CNN "MPN"
	1    13950 6900
	1    0    0    -1  
$EndComp
$Comp
L shim1:WS2812B U23
U 1 1 564BAE4A
P 13950 7300
F 0 "U23" H 13950 7350 50  0000 C CNN
F 1 "WS2812B" H 13950 7025 50  0000 C CNN
F 2 "custom:WS2812B" H 13950 7300 50  0001 C CNN
F 3 "" H 13950 7300 50  0000 C CNN
F 4 "Worldsemi" H 13950 7300 60  0001 C CNN "Manuf"
F 5 "WS2812B" H 13950 7300 60  0001 C CNN "MPN"
	1    13950 7300
	1    0    0    -1  
$EndComp
$Comp
L shim1:WS2812B U24
U 1 1 564BB03C
P 13950 7700
F 0 "U24" H 13950 7750 50  0000 C CNN
F 1 "WS2812B" H 13950 7425 50  0000 C CNN
F 2 "custom:WS2812B" H 13950 7700 50  0001 C CNN
F 3 "" H 13950 7700 50  0000 C CNN
F 4 "Worldsemi" H 13950 7700 60  0001 C CNN "Manuf"
F 5 "WS2812B" H 13950 7700 60  0001 C CNN "MPN"
	1    13950 7700
	1    0    0    -1  
$EndComp
$Comp
L shim1:WS2812B U25
U 1 1 564BB0D3
P 13950 8100
F 0 "U25" H 13950 8150 50  0000 C CNN
F 1 "WS2812B" H 13950 7825 50  0000 C CNN
F 2 "custom:WS2812B" H 13950 8100 50  0001 C CNN
F 3 "" H 13950 8100 50  0000 C CNN
F 4 "Worldsemi" H 13950 8100 60  0001 C CNN "Manuf"
F 5 "WS2812B" H 13950 8100 60  0001 C CNN "MPN"
	1    13950 8100
	1    0    0    -1  
$EndComp
Wire Wire Line
	13450 2200 13450 2600
Wire Wire Line
	13450 2600 13500 2600
Wire Wire Line
	13500 2700 13450 2700
Wire Wire Line
	13450 2700 13450 3000
Wire Wire Line
	13450 3000 13500 3000
Wire Wire Line
	13500 3100 13450 3100
Wire Wire Line
	13450 3100 13450 3400
Wire Wire Line
	13450 3400 13500 3400
Wire Wire Line
	13500 3500 13450 3500
Wire Wire Line
	13450 3500 13450 3800
Wire Wire Line
	13450 3800 13500 3800
Wire Wire Line
	13500 3900 13450 3900
Wire Wire Line
	13450 3900 13450 4200
Wire Wire Line
	13450 4200 13500 4200
Wire Wire Line
	13500 4300 13450 4300
Wire Wire Line
	13450 4300 13450 4600
Wire Wire Line
	13450 4600 13500 4600
Wire Wire Line
	13500 4700 13450 4700
Wire Wire Line
	13450 4700 13450 5000
Wire Wire Line
	13450 5000 13500 5000
Wire Wire Line
	13500 5100 13450 5100
Wire Wire Line
	13450 5100 13450 5400
Wire Wire Line
	13450 5400 13500 5400
Wire Wire Line
	13500 5500 13450 5500
Wire Wire Line
	13450 5500 13450 5800
Wire Wire Line
	13450 5800 13500 5800
Wire Wire Line
	13500 5900 13450 5900
Wire Wire Line
	13450 5900 13450 6200
Wire Wire Line
	13450 6200 13500 6200
Wire Wire Line
	13500 6300 13450 6300
Wire Wire Line
	13450 6300 13450 6600
Wire Wire Line
	13450 6600 13500 6600
Wire Wire Line
	13500 6700 13450 6700
Wire Wire Line
	13450 6700 13450 7000
Wire Wire Line
	13450 7000 13500 7000
Wire Wire Line
	13500 7100 13450 7100
Wire Wire Line
	13450 7100 13450 7400
Wire Wire Line
	13450 7400 13500 7400
Wire Wire Line
	13500 7500 13450 7500
Wire Wire Line
	13450 7500 13450 7800
Wire Wire Line
	13450 7800 13500 7800
Wire Wire Line
	13500 7900 13450 7900
Wire Wire Line
	13450 7900 13450 8200
Wire Wire Line
	13450 8200 13500 8200
$Comp
L shim1:GND #PWR054
U 1 1 564BD229
P 14550 8350
F 0 "#PWR054" H 14550 8100 50  0001 C CNN
F 1 "GND" H 14550 8200 50  0000 C CNN
F 2 "" H 14550 8350 60  0000 C CNN
F 3 "" H 14550 8350 60  0000 C CNN
	1    14550 8350
	1    0    0    -1  
$EndComp
Wire Wire Line
	14400 8300 14550 8300
Wire Wire Line
	14550 8300 14550 8350
Connection ~ 14550 8300
Wire Wire Line
	14400 8200 15050 8200
Wire Wire Line
	15050 2200 15050 2600
Wire Wire Line
	15050 8300 14900 8300
$Comp
L shim1:GND #PWR055
U 1 1 564BD2BF
P 14550 2750
F 0 "#PWR055" H 14550 2500 50  0001 C CNN
F 1 "GND" H 14550 2600 50  0000 C CNN
F 2 "" H 14550 2750 60  0000 C CNN
F 3 "" H 14550 2750 60  0000 C CNN
	1    14550 2750
	1    0    0    -1  
$EndComp
Wire Wire Line
	14400 2700 14550 2700
Wire Wire Line
	14550 2700 14550 2750
Connection ~ 14550 2700
Wire Wire Line
	14400 2600 15050 2600
Wire Wire Line
	15050 2700 14900 2700
$Comp
L shim1:GND #PWR056
U 1 1 564BD357
P 14550 3150
F 0 "#PWR056" H 14550 2900 50  0001 C CNN
F 1 "GND" H 14550 3000 50  0000 C CNN
F 2 "" H 14550 3150 60  0000 C CNN
F 3 "" H 14550 3150 60  0000 C CNN
	1    14550 3150
	1    0    0    -1  
$EndComp
Wire Wire Line
	14400 3100 14550 3100
Wire Wire Line
	14550 3100 14550 3150
Connection ~ 14550 3100
Wire Wire Line
	14400 3000 15050 3000
Wire Wire Line
	15050 3100 14900 3100
$Comp
L shim1:GND #PWR057
U 1 1 564BD519
P 14550 3550
F 0 "#PWR057" H 14550 3300 50  0001 C CNN
F 1 "GND" H 14550 3400 50  0000 C CNN
F 2 "" H 14550 3550 60  0000 C CNN
F 3 "" H 14550 3550 60  0000 C CNN
	1    14550 3550
	1    0    0    -1  
$EndComp
Wire Wire Line
	14400 3500 14550 3500
Wire Wire Line
	14550 3500 14550 3550
Connection ~ 14550 3500
Wire Wire Line
	14400 3400 15050 3400
Wire Wire Line
	15050 3500 14900 3500
$Comp
L shim1:GND #PWR058
U 1 1 564BD5C0
P 14550 3950
F 0 "#PWR058" H 14550 3700 50  0001 C CNN
F 1 "GND" H 14550 3800 50  0000 C CNN
F 2 "" H 14550 3950 60  0000 C CNN
F 3 "" H 14550 3950 60  0000 C CNN
	1    14550 3950
	1    0    0    -1  
$EndComp
Wire Wire Line
	14400 3900 14550 3900
Wire Wire Line
	14550 3900 14550 3950
Connection ~ 14550 3900
Wire Wire Line
	14400 3800 15050 3800
Wire Wire Line
	15050 3900 14900 3900
$Comp
L shim1:GND #PWR059
U 1 1 564BD667
P 14550 4350
F 0 "#PWR059" H 14550 4100 50  0001 C CNN
F 1 "GND" H 14550 4200 50  0000 C CNN
F 2 "" H 14550 4350 60  0000 C CNN
F 3 "" H 14550 4350 60  0000 C CNN
	1    14550 4350
	1    0    0    -1  
$EndComp
Wire Wire Line
	14400 4300 14550 4300
Wire Wire Line
	14550 4300 14550 4350
Connection ~ 14550 4300
Wire Wire Line
	14400 4200 15050 4200
Wire Wire Line
	15050 4300 14900 4300
$Comp
L shim1:GND #PWR060
U 1 1 564BD716
P 14550 4750
F 0 "#PWR060" H 14550 4500 50  0001 C CNN
F 1 "GND" H 14550 4600 50  0000 C CNN
F 2 "" H 14550 4750 60  0000 C CNN
F 3 "" H 14550 4750 60  0000 C CNN
	1    14550 4750
	1    0    0    -1  
$EndComp
Wire Wire Line
	14400 4700 14550 4700
Wire Wire Line
	14550 4700 14550 4750
Connection ~ 14550 4700
Wire Wire Line
	14400 4600 15050 4600
Wire Wire Line
	15050 4700 14900 4700
$Comp
L shim1:GND #PWR061
U 1 1 564BD7BC
P 14550 5150
F 0 "#PWR061" H 14550 4900 50  0001 C CNN
F 1 "GND" H 14550 5000 50  0000 C CNN
F 2 "" H 14550 5150 60  0000 C CNN
F 3 "" H 14550 5150 60  0000 C CNN
	1    14550 5150
	1    0    0    -1  
$EndComp
Wire Wire Line
	14400 5100 14550 5100
Wire Wire Line
	14550 5100 14550 5150
Connection ~ 14550 5100
Wire Wire Line
	14400 5000 15050 5000
Wire Wire Line
	15050 5100 14900 5100
$Comp
L shim1:GND #PWR062
U 1 1 564BD869
P 14550 5550
F 0 "#PWR062" H 14550 5300 50  0001 C CNN
F 1 "GND" H 14550 5400 50  0000 C CNN
F 2 "" H 14550 5550 60  0000 C CNN
F 3 "" H 14550 5550 60  0000 C CNN
	1    14550 5550
	1    0    0    -1  
$EndComp
Wire Wire Line
	14400 5500 14550 5500
Wire Wire Line
	14550 5500 14550 5550
Connection ~ 14550 5500
Wire Wire Line
	14400 5400 15050 5400
Wire Wire Line
	15050 5500 14900 5500
$Comp
L shim1:GND #PWR063
U 1 1 564BD91E
P 14550 5950
F 0 "#PWR063" H 14550 5700 50  0001 C CNN
F 1 "GND" H 14550 5800 50  0000 C CNN
F 2 "" H 14550 5950 60  0000 C CNN
F 3 "" H 14550 5950 60  0000 C CNN
	1    14550 5950
	1    0    0    -1  
$EndComp
Wire Wire Line
	14400 5900 14550 5900
Wire Wire Line
	14550 5900 14550 5950
Connection ~ 14550 5900
Wire Wire Line
	14400 5800 15050 5800
Wire Wire Line
	15050 5900 14900 5900
$Comp
L shim1:GND #PWR064
U 1 1 564BD9CE
P 14550 6350
F 0 "#PWR064" H 14550 6100 50  0001 C CNN
F 1 "GND" H 14550 6200 50  0000 C CNN
F 2 "" H 14550 6350 60  0000 C CNN
F 3 "" H 14550 6350 60  0000 C CNN
	1    14550 6350
	1    0    0    -1  
$EndComp
Wire Wire Line
	14400 6300 14550 6300
Wire Wire Line
	14550 6300 14550 6350
Connection ~ 14550 6300
Wire Wire Line
	14400 6200 15050 6200
Wire Wire Line
	15050 6300 14900 6300
$Comp
L shim1:GND #PWR065
U 1 1 564BDA7D
P 14550 6750
F 0 "#PWR065" H 14550 6500 50  0001 C CNN
F 1 "GND" H 14550 6600 50  0000 C CNN
F 2 "" H 14550 6750 60  0000 C CNN
F 3 "" H 14550 6750 60  0000 C CNN
	1    14550 6750
	1    0    0    -1  
$EndComp
Wire Wire Line
	14400 6700 14550 6700
Wire Wire Line
	14550 6700 14550 6750
Connection ~ 14550 6700
Wire Wire Line
	14400 6600 15050 6600
Wire Wire Line
	15050 6700 14900 6700
$Comp
L shim1:GND #PWR066
U 1 1 564BDB25
P 14550 7150
F 0 "#PWR066" H 14550 6900 50  0001 C CNN
F 1 "GND" H 14550 7000 50  0000 C CNN
F 2 "" H 14550 7150 60  0000 C CNN
F 3 "" H 14550 7150 60  0000 C CNN
	1    14550 7150
	1    0    0    -1  
$EndComp
Wire Wire Line
	14400 7100 14550 7100
Wire Wire Line
	14550 7100 14550 7150
Connection ~ 14550 7100
Wire Wire Line
	14400 7000 15050 7000
Wire Wire Line
	15050 7100 14900 7100
$Comp
L shim1:GND #PWR067
U 1 1 564BDBE2
P 14550 7550
F 0 "#PWR067" H 14550 7300 50  0001 C CNN
F 1 "GND" H 14550 7400 50  0000 C CNN
F 2 "" H 14550 7550 60  0000 C CNN
F 3 "" H 14550 7550 60  0000 C CNN
	1    14550 7550
	1    0    0    -1  
$EndComp
Wire Wire Line
	14400 7500 14550 7500
Wire Wire Line
	14550 7500 14550 7550
Connection ~ 14550 7500
Wire Wire Line
	14400 7400 15050 7400
Wire Wire Line
	15050 7500 14900 7500
$Comp
L shim1:GND #PWR068
U 1 1 564BDE78
P 14550 7950
F 0 "#PWR068" H 14550 7700 50  0001 C CNN
F 1 "GND" H 14550 7800 50  0000 C CNN
F 2 "" H 14550 7950 60  0000 C CNN
F 3 "" H 14550 7950 60  0000 C CNN
	1    14550 7950
	1    0    0    -1  
$EndComp
Wire Wire Line
	14400 7900 14550 7900
Wire Wire Line
	14550 7900 14550 7950
Connection ~ 14550 7900
Wire Wire Line
	14400 7800 15050 7800
Wire Wire Line
	15050 7900 14900 7900
Text GLabel 10500 4000 2    50   Output ~ 0
leds_din
Wire Wire Line
	9800 4000 10500 4000
Text GLabel 13100 2200 0    50   Input ~ 0
leds_din
$Comp
L shim1:CONN_1 P11
U 1 1 564BF945
P 7450 5400
F 0 "P11" H 7530 5400 40  0000 L CNN
F 1 "CONN_1" H 7450 5455 30  0001 C CNN
F 2 "conn-test:TEST-SMD-SMALL" H 7450 5400 60  0001 C CNN
F 3 "" H 7450 5400 60  0000 C CNN
	1    7450 5400
	-1   0    0    1   
$EndComp
Wire Wire Line
	7650 5900 7850 5900
$Comp
L shim1:CONN_1 P12
U 1 1 564BFC0F
P 7450 5500
F 0 "P12" H 7530 5500 40  0000 L CNN
F 1 "CONN_1" H 7450 5555 30  0001 C CNN
F 2 "conn-test:TEST-SMD-SMALL" H 7450 5500 60  0001 C CNN
F 3 "" H 7450 5500 60  0000 C CNN
	1    7450 5500
	-1   0    0    1   
$EndComp
Wire Wire Line
	7650 6000 7750 6000
Text GLabel 10600 3000 2    50   BiDi ~ 0
xu4_uart_0.rxd
Text GLabel 10600 2900 2    50   BiDi ~ 0
xu4_uart_0.txd
Text GLabel 10600 2800 2    50   BiDi ~ 0
xu4_uart_0.rtsn
Text GLabel 10600 2700 2    50   BiDi ~ 0
xu4_uart_0.ctsn
Wire Wire Line
	9800 2700 10600 2700
Wire Wire Line
	9800 2800 10600 2800
Wire Wire Line
	9800 2900 10600 2900
Wire Wire Line
	9800 3000 10600 3000
$Comp
L shim1:CONN_1 P10
U 1 1 564C1707
P 7450 3000
F 0 "P10" H 7530 3000 40  0000 L CNN
F 1 "CONN_1" H 7450 3055 30  0001 C CNN
F 2 "conn-test:TEST-SMD-SMALL" H 7450 3000 60  0001 C CNN
F 3 "" H 7450 3000 60  0000 C CNN
	1    7450 3000
	-1   0    0    1   
$EndComp
Wire Wire Line
	7600 3000 8200 3000
NoConn ~ 8200 2600
NoConn ~ 13500 8300
Text GLabel 10500 6000 2    50   BiDi ~ 0
bcbus0
Text GLabel 10500 5900 2    50   BiDi ~ 0
bcbus1
Text GLabel 10500 5800 2    50   BiDi ~ 0
bcbus2
Text GLabel 10500 5700 2    50   BiDi ~ 0
bcbus3
Text GLabel 10500 5600 2    50   BiDi ~ 0
bcbus4
Text GLabel 10500 5500 2    50   BiDi ~ 0
bcbus5
Text GLabel 10500 5400 2    50   BiDi ~ 0
bcbus6
Text GLabel 10500 5300 2    50   BiDi ~ 0
bcbus7
$Comp
L shim1:Csmall C26
U 1 1 564D64FE
P 7400 1250
F 0 "C26" H 7410 1320 50  0000 L CNN
F 1 "100n" H 7410 1170 50  0000 L CNN
F 2 "IPC7351-Nominal:CAPC1608X90" H 7400 1250 60  0001 C CNN
F 3 "" H 7400 1250 60  0000 C CNN
F 4 "Cap 0603 X7R 10%" H 7400 1250 60  0001 C CNN "MPN"
	1    7400 1250
	1    0    0    -1  
$EndComp
$Comp
L shim1:Csmall C28
U 1 1 564D68EC
P 7600 1250
F 0 "C28" H 7610 1320 50  0000 L CNN
F 1 "100n" H 7610 1170 50  0000 L CNN
F 2 "IPC7351-Nominal:CAPC1608X90" H 7600 1250 60  0001 C CNN
F 3 "" H 7600 1250 60  0000 C CNN
F 4 "Cap 0603 X7R 10%" H 7600 1250 60  0001 C CNN "MPN"
	1    7600 1250
	1    0    0    -1  
$EndComp
Wire Wire Line
	7400 1350 7400 1400
Wire Wire Line
	7400 1400 7600 1400
$Comp
L shim1:GND #PWR069
U 1 1 564D6F63
P 7600 4250
F 0 "#PWR069" H 7600 4000 50  0001 C CNN
F 1 "GND" H 7600 4100 50  0000 C CNN
F 2 "" H 7600 4250 60  0000 C CNN
F 3 "" H 7600 4250 60  0000 C CNN
	1    7600 4250
	1    0    0    -1  
$EndComp
Wire Wire Line
	7400 3850 7400 3900
Wire Wire Line
	7600 3950 7600 3900
Wire Wire Line
	7600 3900 7400 3900
Connection ~ 7400 3900
Wire Wire Line
	7600 4150 7600 4200
Connection ~ 7600 4200
$Comp
L shim1:Csmall C27
U 1 1 564D6F6F
P 7400 4050
F 0 "C27" H 7410 4120 50  0000 L CNN
F 1 "100n" H 7410 3970 50  0000 L CNN
F 2 "IPC7351-Nominal:CAPC1608X90" H 7400 4050 60  0001 C CNN
F 3 "" H 7400 4050 60  0000 C CNN
F 4 "Cap 0603 X7R 10%" H 7400 4050 60  0001 C CNN "MPN"
	1    7400 4050
	1    0    0    -1  
$EndComp
$Comp
L shim1:Csmall C29
U 1 1 564D6F75
P 7600 4050
F 0 "C29" H 7610 4120 50  0000 L CNN
F 1 "100n" H 7610 3970 50  0000 L CNN
F 2 "IPC7351-Nominal:CAPC1608X90" H 7600 4050 60  0001 C CNN
F 3 "" H 7600 4050 60  0000 C CNN
F 4 "Cap 0603 X7R 10%" H 7600 4050 60  0001 C CNN "MPN"
	1    7600 4050
	1    0    0    -1  
$EndComp
Wire Wire Line
	7400 4150 7400 4200
Wire Wire Line
	7400 4200 7600 4200
$Comp
L shim1:usb_3v3 #PWR070
U 1 1 564D7056
P 7400 3850
F 0 "#PWR070" H 7400 3700 50  0001 C CNN
F 1 "usb_3v3" H 7400 3990 50  0000 C CNN
F 2 "" H 7400 3850 60  0000 C CNN
F 3 "" H 7400 3850 60  0000 C CNN
	1    7400 3850
	1    0    0    -1  
$EndComp
$Comp
L shim1:GND #PWR071
U 1 1 564D7690
P 1600 1800
F 0 "#PWR071" H 1600 1550 50  0001 C CNN
F 1 "GND" H 1600 1650 50  0000 C CNN
F 2 "" H 1600 1800 60  0000 C CNN
F 3 "" H 1600 1800 60  0000 C CNN
	1    1600 1800
	1    0    0    -1  
$EndComp
Wire Wire Line
	1400 1400 1400 1450
Wire Wire Line
	1600 1500 1600 1450
Wire Wire Line
	1600 1450 1400 1450
Connection ~ 1400 1450
Wire Wire Line
	1600 1700 1600 1750
Connection ~ 1600 1750
$Comp
L shim1:Csmall C21
U 1 1 564D769C
P 1400 1600
F 0 "C21" H 1410 1670 50  0000 L CNN
F 1 "100n" H 1410 1520 50  0000 L CNN
F 2 "IPC7351-Nominal:CAPC1608X90" H 1400 1600 60  0001 C CNN
F 3 "" H 1400 1600 60  0000 C CNN
F 4 "Cap 0603 X7R 10%" H 1400 1600 60  0001 C CNN "MPN"
	1    1400 1600
	1    0    0    -1  
$EndComp
$Comp
L shim1:Csmall C23
U 1 1 564D76A2
P 1600 1600
F 0 "C23" H 1610 1670 50  0000 L CNN
F 1 "100n" H 1610 1520 50  0000 L CNN
F 2 "IPC7351-Nominal:CAPC1608X90" H 1600 1600 60  0001 C CNN
F 3 "" H 1600 1600 60  0000 C CNN
F 4 "Cap 0603 X7R 10%" H 1600 1600 60  0001 C CNN "MPN"
	1    1600 1600
	1    0    0    -1  
$EndComp
Wire Wire Line
	1400 1700 1400 1750
Wire Wire Line
	1400 1750 1600 1750
$Comp
L shim1:usb_3v3 #PWR072
U 1 1 564D76AA
P 1400 1400
F 0 "#PWR072" H 1400 1250 50  0001 C CNN
F 1 "usb_3v3" H 1400 1540 50  0000 C CNN
F 2 "" H 1400 1400 60  0000 C CNN
F 3 "" H 1400 1400 60  0000 C CNN
	1    1400 1400
	1    0    0    -1  
$EndComp
$Comp
L shim1:GND #PWR073
U 1 1 564D77D6
P 1600 4400
F 0 "#PWR073" H 1600 4150 50  0001 C CNN
F 1 "GND" H 1600 4250 50  0000 C CNN
F 2 "" H 1600 4400 60  0000 C CNN
F 3 "" H 1600 4400 60  0000 C CNN
	1    1600 4400
	1    0    0    -1  
$EndComp
Wire Wire Line
	1400 4000 1400 4050
Wire Wire Line
	1600 4100 1600 4050
Wire Wire Line
	1600 4050 1400 4050
Connection ~ 1400 4050
Wire Wire Line
	1600 4300 1600 4350
Connection ~ 1600 4350
$Comp
L shim1:Csmall C22
U 1 1 564D77E2
P 1400 4200
F 0 "C22" H 1410 4270 50  0000 L CNN
F 1 "100n" H 1410 4120 50  0000 L CNN
F 2 "IPC7351-Nominal:CAPC1608X90" H 1400 4200 60  0001 C CNN
F 3 "" H 1400 4200 60  0000 C CNN
F 4 "Cap 0603 X7R 10%" H 1400 4200 60  0001 C CNN "MPN"
	1    1400 4200
	1    0    0    -1  
$EndComp
$Comp
L shim1:Csmall C24
U 1 1 564D77E8
P 1600 4200
F 0 "C24" H 1610 4270 50  0000 L CNN
F 1 "100n" H 1610 4120 50  0000 L CNN
F 2 "IPC7351-Nominal:CAPC1608X90" H 1600 4200 60  0001 C CNN
F 3 "" H 1600 4200 60  0000 C CNN
F 4 "Cap 0603 X7R 10%" H 1600 4200 60  0001 C CNN "MPN"
	1    1600 4200
	1    0    0    -1  
$EndComp
Wire Wire Line
	1400 4300 1400 4350
Wire Wire Line
	1400 4350 1600 4350
$Comp
L shim1:usb_3v3 #PWR074
U 1 1 564D77F0
P 1400 4000
F 0 "#PWR074" H 1400 3850 50  0001 C CNN
F 1 "usb_3v3" H 1400 4140 50  0000 C CNN
F 2 "" H 1400 4000 60  0000 C CNN
F 3 "" H 1400 4000 60  0000 C CNN
	1    1400 4000
	1    0    0    -1  
$EndComp
$Comp
L shim1:Rsmall R32
U 1 1 564D7C41
P 2000 2150
F 0 "R32" V 1950 1950 50  0000 C CNN
F 1 "10k" V 2000 2150 50  0000 C CNN
F 2 "IPC7351-Nominal:RESC1608X50" V 1930 2150 30  0001 C CNN
F 3 "" H 2000 2150 30  0000 C CNN
F 4 "Res 0603 1%" H 2000 2150 60  0001 C CNN "MPN"
	1    2000 2150
	1    0    0    -1  
$EndComp
$Comp
L shim1:Rsmall R33
U 1 1 564D82CE
P 2100 2150
F 0 "R33" V 2050 1950 50  0000 C CNN
F 1 "10k" V 2100 2150 50  0000 C CNN
F 2 "IPC7351-Nominal:RESC1608X50" V 2030 2150 30  0001 C CNN
F 3 "" H 2100 2150 30  0000 C CNN
F 4 "Res 0603 1%" H 2100 2150 60  0001 C CNN "MPN"
	1    2100 2150
	1    0    0    -1  
$EndComp
$Comp
L shim1:Csmall C32
U 1 1 564D9F70
P 14800 2700
F 0 "C32" V 14850 2750 50  0000 L CNN
F 1 "100n" V 14850 2500 50  0000 L CNN
F 2 "IPC7351-Nominal:CAPC1608X90" H 14800 2700 60  0001 C CNN
F 3 "" H 14800 2700 60  0000 C CNN
F 4 "Cap 0603 X7R 10%" H 14800 2700 60  0001 C CNN "MPN"
	1    14800 2700
	0    1    1    0   
$EndComp
$Comp
L shim1:Csmall C33
U 1 1 564DA034
P 14800 3100
F 0 "C33" V 14850 3150 50  0000 L CNN
F 1 "100n" V 14850 2900 50  0000 L CNN
F 2 "IPC7351-Nominal:CAPC1608X90" H 14800 3100 60  0001 C CNN
F 3 "" H 14800 3100 60  0000 C CNN
F 4 "Cap 0603 X7R 10%" H 14800 3100 60  0001 C CNN "MPN"
	1    14800 3100
	0    1    1    0   
$EndComp
$Comp
L shim1:Csmall C34
U 1 1 564DA0F7
P 14800 3500
F 0 "C34" V 14850 3550 50  0000 L CNN
F 1 "100n" V 14850 3300 50  0000 L CNN
F 2 "IPC7351-Nominal:CAPC1608X90" H 14800 3500 60  0001 C CNN
F 3 "" H 14800 3500 60  0000 C CNN
F 4 "Cap 0603 X7R 10%" H 14800 3500 60  0001 C CNN "MPN"
	1    14800 3500
	0    1    1    0   
$EndComp
$Comp
L shim1:Csmall C35
U 1 1 564DA1BE
P 14800 3900
F 0 "C35" V 14850 3950 50  0000 L CNN
F 1 "100n" V 14850 3700 50  0000 L CNN
F 2 "IPC7351-Nominal:CAPC1608X90" H 14800 3900 60  0001 C CNN
F 3 "" H 14800 3900 60  0000 C CNN
F 4 "Cap 0603 X7R 10%" H 14800 3900 60  0001 C CNN "MPN"
	1    14800 3900
	0    1    1    0   
$EndComp
$Comp
L shim1:Csmall C36
U 1 1 564DA287
P 14800 4300
F 0 "C36" V 14850 4350 50  0000 L CNN
F 1 "100n" V 14850 4100 50  0000 L CNN
F 2 "IPC7351-Nominal:CAPC1608X90" H 14800 4300 60  0001 C CNN
F 3 "" H 14800 4300 60  0000 C CNN
F 4 "Cap 0603 X7R 10%" H 14800 4300 60  0001 C CNN "MPN"
	1    14800 4300
	0    1    1    0   
$EndComp
$Comp
L shim1:Csmall C37
U 1 1 564DA350
P 14800 4700
F 0 "C37" V 14850 4750 50  0000 L CNN
F 1 "100n" V 14850 4500 50  0000 L CNN
F 2 "IPC7351-Nominal:CAPC1608X90" H 14800 4700 60  0001 C CNN
F 3 "" H 14800 4700 60  0000 C CNN
F 4 "Cap 0603 X7R 10%" H 14800 4700 60  0001 C CNN "MPN"
	1    14800 4700
	0    1    1    0   
$EndComp
$Comp
L shim1:Csmall C38
U 1 1 564DA41C
P 14800 5100
F 0 "C38" V 14850 5150 50  0000 L CNN
F 1 "100n" V 14850 4900 50  0000 L CNN
F 2 "IPC7351-Nominal:CAPC1608X90" H 14800 5100 60  0001 C CNN
F 3 "" H 14800 5100 60  0000 C CNN
F 4 "Cap 0603 X7R 10%" H 14800 5100 60  0001 C CNN "MPN"
	1    14800 5100
	0    1    1    0   
$EndComp
$Comp
L shim1:Csmall C39
U 1 1 564DA4FD
P 14800 5500
F 0 "C39" V 14850 5550 50  0000 L CNN
F 1 "100n" V 14850 5300 50  0000 L CNN
F 2 "IPC7351-Nominal:CAPC1608X90" H 14800 5500 60  0001 C CNN
F 3 "" H 14800 5500 60  0000 C CNN
F 4 "Cap 0603 X7R 10%" H 14800 5500 60  0001 C CNN "MPN"
	1    14800 5500
	0    1    1    0   
$EndComp
$Comp
L shim1:Csmall C40
U 1 1 564DA5CF
P 14800 5900
F 0 "C40" V 14850 5950 50  0000 L CNN
F 1 "100n" V 14850 5700 50  0000 L CNN
F 2 "IPC7351-Nominal:CAPC1608X90" H 14800 5900 60  0001 C CNN
F 3 "" H 14800 5900 60  0000 C CNN
F 4 "Cap 0603 X7R 10%" H 14800 5900 60  0001 C CNN "MPN"
	1    14800 5900
	0    1    1    0   
$EndComp
$Comp
L shim1:Csmall C41
U 1 1 564DA6A4
P 14800 6300
F 0 "C41" V 14850 6350 50  0000 L CNN
F 1 "100n" V 14850 6100 50  0000 L CNN
F 2 "IPC7351-Nominal:CAPC1608X90" H 14800 6300 60  0001 C CNN
F 3 "" H 14800 6300 60  0000 C CNN
F 4 "Cap 0603 X7R 10%" H 14800 6300 60  0001 C CNN "MPN"
	1    14800 6300
	0    1    1    0   
$EndComp
$Comp
L shim1:Csmall C42
U 1 1 564DA77C
P 14800 6700
F 0 "C42" V 14850 6750 50  0000 L CNN
F 1 "100n" V 14850 6500 50  0000 L CNN
F 2 "IPC7351-Nominal:CAPC1608X90" H 14800 6700 60  0001 C CNN
F 3 "" H 14800 6700 60  0000 C CNN
F 4 "Cap 0603 X7R 10%" H 14800 6700 60  0001 C CNN "MPN"
	1    14800 6700
	0    1    1    0   
$EndComp
$Comp
L shim1:Csmall C43
U 1 1 564DA85E
P 14800 7100
F 0 "C43" V 14850 7150 50  0000 L CNN
F 1 "100n" V 14850 6900 50  0000 L CNN
F 2 "IPC7351-Nominal:CAPC1608X90" H 14800 7100 60  0001 C CNN
F 3 "" H 14800 7100 60  0000 C CNN
F 4 "Cap 0603 X7R 10%" H 14800 7100 60  0001 C CNN "MPN"
	1    14800 7100
	0    1    1    0   
$EndComp
$Comp
L shim1:Csmall C44
U 1 1 564DA93C
P 14800 7500
F 0 "C44" V 14850 7550 50  0000 L CNN
F 1 "100n" V 14850 7300 50  0000 L CNN
F 2 "IPC7351-Nominal:CAPC1608X90" H 14800 7500 60  0001 C CNN
F 3 "" H 14800 7500 60  0000 C CNN
F 4 "Cap 0603 X7R 10%" H 14800 7500 60  0001 C CNN "MPN"
	1    14800 7500
	0    1    1    0   
$EndComp
$Comp
L shim1:Csmall C45
U 1 1 564DAA22
P 14800 7900
F 0 "C45" V 14850 7950 50  0000 L CNN
F 1 "100n" V 14850 7700 50  0000 L CNN
F 2 "IPC7351-Nominal:CAPC1608X90" H 14800 7900 60  0001 C CNN
F 3 "" H 14800 7900 60  0000 C CNN
F 4 "Cap 0603 X7R 10%" H 14800 7900 60  0001 C CNN "MPN"
	1    14800 7900
	0    1    1    0   
$EndComp
$Comp
L shim1:Csmall C46
U 1 1 564DAB08
P 14800 8300
F 0 "C46" V 14850 8350 50  0000 L CNN
F 1 "100n" V 14850 8100 50  0000 L CNN
F 2 "IPC7351-Nominal:CAPC1608X90" H 14800 8300 60  0001 C CNN
F 3 "" H 14800 8300 60  0000 C CNN
F 4 "Cap 0603 X7R 10%" H 14800 8300 60  0001 C CNN "MPN"
	1    14800 8300
	0    1    1    0   
$EndComp
Text GLabel 4700 2600 2    50   Input ~ 0
overload
$Comp
L shim1:Rsmall R34
U 1 1 565DC397
P 4450 2600
F 0 "R34" V 4400 2400 50  0000 C CNN
F 1 "10k" V 4450 2600 50  0000 C CNN
F 2 "IPC7351-Nominal:RESC1608X50" V 4380 2600 30  0001 C CNN
F 3 "" H 4450 2600 30  0000 C CNN
F 4 "Res 0603 1%" H 4450 2600 60  0001 C CNN "MPN"
	1    4450 2600
	0    1    1    0   
$EndComp
Wire Wire Line
	4700 2600 4600 2600
Wire Wire Line
	4300 2600 4200 2600
NoConn ~ 9800 2400
NoConn ~ 8200 2200
Text GLabel 10600 2600 2    50   Input ~ 0
alert1
Text GLabel 10600 2500 2    50   Input ~ 0
alert2
Wire Wire Line
	10600 2500 9800 2500
Wire Wire Line
	10600 2600 9800 2600
Wire Wire Line
	4200 4300 4700 4300
Wire Wire Line
	4200 4400 4700 4400
Wire Wire Line
	4200 4500 4700 4500
Wire Wire Line
	4200 4600 4700 4600
Wire Wire Line
	4200 4700 4700 4700
Wire Wire Line
	4200 4800 4700 4800
Wire Wire Line
	13100 2200 13450 2200
Wire Wire Line
	4200 4100 4700 4100
Wire Wire Line
	4200 4200 4700 4200
Wire Wire Line
	9800 5300 10500 5300
Wire Wire Line
	9800 5400 10500 5400
Wire Wire Line
	9800 5500 10500 5500
Wire Wire Line
	9800 5600 10500 5600
Wire Wire Line
	9800 5700 10500 5700
Wire Wire Line
	9800 5800 10500 5800
Wire Wire Line
	9800 5900 10500 5900
Wire Wire Line
	9800 6000 10500 6000
Text GLabel 10500 5200 2    50   BiDi ~ 0
acbus4
Wire Wire Line
	9800 5200 10500 5200
$Comp
L shim1:CONN_10X2 P4
U 1 1 5689E554
P 9000 7950
F 0 "P4" H 9000 8500 60  0000 C CNN
F 1 "CONN_10X2" V 9000 7850 50  0000 C CNN
F 2 "custom:DF12-20" H 9000 7950 60  0000 C CNN
F 3 "" H 9000 7950 60  0000 C CNN
F 4 "No fit" H 9000 7950 60  0001 C CNN "Notes"
	1    9000 7950
	1    0    0    -1  
$EndComp
$Comp
L shim1:GND #PWR075
U 1 1 5689E92F
P 8100 8500
F 0 "#PWR075" H 8100 8250 50  0001 C CNN
F 1 "GND" H 8100 8350 50  0000 C CNN
F 2 "" H 8100 8500 60  0000 C CNN
F 3 "" H 8100 8500 60  0000 C CNN
	1    8100 8500
	1    0    0    -1  
$EndComp
Wire Wire Line
	8100 8500 8100 8400
Wire Wire Line
	8100 8400 8600 8400
$Comp
L shim1:GND #PWR076
U 1 1 5689EBC2
P 9900 8500
F 0 "#PWR076" H 9900 8250 50  0001 C CNN
F 1 "GND" H 9900 8350 50  0000 C CNN
F 2 "" H 9900 8500 60  0000 C CNN
F 3 "" H 9900 8500 60  0000 C CNN
	1    9900 8500
	1    0    0    -1  
$EndComp
Wire Wire Line
	9400 8400 9900 8400
Wire Wire Line
	9900 8400 9900 8500
Text GLabel 8100 7600 0    50   BiDi ~ 0
fpgaspare0
Text GLabel 8100 7700 0    50   BiDi ~ 0
fpgaspare1
Text GLabel 8100 7800 0    50   BiDi ~ 0
fpgaspare2
Text GLabel 8100 7900 0    50   BiDi ~ 0
fpgaspare3
Text GLabel 8100 8000 0    50   BiDi ~ 0
fpgaspare4
Text GLabel 8100 8100 0    50   BiDi ~ 0
fpgaspare5
Text GLabel 8100 8200 0    50   BiDi ~ 0
fpgaspare6
Text GLabel 8100 8300 0    50   BiDi ~ 0
fpgaspare7
Text GLabel 9900 7600 2    50   BiDi ~ 0
fpgaspare8
Text GLabel 9900 7700 2    50   BiDi ~ 0
fpgaspare9
Text GLabel 9900 7800 2    50   BiDi ~ 0
fpgaspare10
Text GLabel 9900 7900 2    50   BiDi ~ 0
fpgaspare11
Text GLabel 9900 8000 2    50   BiDi ~ 0
fpgaspare12
Text GLabel 9900 8100 2    50   BiDi ~ 0
fpgaspare13
Text GLabel 9900 8200 2    50   BiDi ~ 0
fpgaspare14
Text GLabel 9900 8300 2    50   BiDi ~ 0
fpgaspare15
$Comp
L shim1:usb_3v3 #PWR077
U 1 1 5689F97A
P 8100 7500
F 0 "#PWR077" H 8100 7350 50  0001 C CNN
F 1 "usb_3v3" H 8100 7640 50  0000 C CNN
F 2 "" H 8100 7500 60  0000 C CNN
F 3 "" H 8100 7500 60  0000 C CNN
	1    8100 7500
	1    0    0    -1  
$EndComp
$Comp
L shim1:usb_3v3 #PWR078
U 1 1 5689FA1B
P 9900 7500
F 0 "#PWR078" H 9900 7350 50  0001 C CNN
F 1 "usb_3v3" H 9900 7640 50  0000 C CNN
F 2 "" H 9900 7500 60  0000 C CNN
F 3 "" H 9900 7500 60  0000 C CNN
	1    9900 7500
	1    0    0    -1  
$EndComp
Wire Wire Line
	9400 7500 9900 7500
Wire Wire Line
	8600 7500 8100 7500
Wire Wire Line
	8100 7600 8600 7600
Wire Wire Line
	9400 7600 9900 7600
Wire Wire Line
	9400 7700 9900 7700
Wire Wire Line
	9400 7800 9900 7800
Wire Wire Line
	9400 7900 9900 7900
Wire Wire Line
	9400 8000 9900 8000
Wire Wire Line
	9400 8100 9900 8100
Wire Wire Line
	9400 8200 9900 8200
Wire Wire Line
	9400 8300 9900 8300
Wire Wire Line
	8600 7700 8100 7700
Wire Wire Line
	8600 7800 8100 7800
Wire Wire Line
	8600 7900 8100 7900
Wire Wire Line
	8600 8000 8100 8000
Wire Wire Line
	8100 8100 8600 8100
Wire Wire Line
	8100 8200 8600 8200
Wire Wire Line
	8100 8300 8600 8300
Text GLabel 10500 4800 2    50   BiDi ~ 0
fpgaspare0
Text GLabel 10500 4700 2    50   BiDi ~ 0
fpgaspare1
Text GLabel 10500 4600 2    50   BiDi ~ 0
fpgaspare2
Text GLabel 10500 4500 2    50   BiDi ~ 0
fpgaspare3
Text GLabel 10500 4400 2    50   BiDi ~ 0
fpgaspare4
Text GLabel 10500 4300 2    50   BiDi ~ 0
fpgaspare5
Text GLabel 10500 4200 2    50   BiDi ~ 0
fpgaspare6
Text GLabel 10500 4100 2    50   BiDi ~ 0
fpgaspare7
Text GLabel 10500 4900 2    50   BiDi ~ 0
fpgaspare8
Text GLabel 10500 5000 2    50   BiDi ~ 0
fpgaspare9
Text GLabel 10500 5100 2    50   BiDi ~ 0
fpgaspare10
Text GLabel 7650 5900 0    50   BiDi ~ 0
fpgaspare11
Text GLabel 7650 6000 0    50   BiDi ~ 0
fpgaspare12
Wire Wire Line
	9800 4100 10500 4100
Wire Wire Line
	9800 4200 10500 4200
Wire Wire Line
	9800 4300 10500 4300
Wire Wire Line
	9800 4400 10500 4400
Wire Wire Line
	9800 4500 10500 4500
Wire Wire Line
	9800 4600 10500 4600
Wire Wire Line
	9800 4700 10500 4700
Wire Wire Line
	9800 4800 10500 4800
Wire Wire Line
	9800 4900 10500 4900
Wire Wire Line
	9800 5000 10500 5000
Wire Wire Line
	9800 5100 10500 5100
Wire Wire Line
	7600 5500 7750 5500
Wire Wire Line
	7750 5500 7750 6000
Connection ~ 7750 6000
Wire Wire Line
	7600 5400 7850 5400
Wire Wire Line
	7850 5400 7850 5900
Connection ~ 7850 5900
Text GLabel 2300 2600 0    50   BiDi ~ 0
fpgaspare13
Text GLabel 2300 2700 0    50   BiDi ~ 0
fpgaspare14
Wire Wire Line
	2300 2600 2400 2600
Wire Wire Line
	2400 2600 2400 2100
Wire Wire Line
	2400 2100 2600 2100
Wire Wire Line
	2300 2700 2500 2700
Wire Wire Line
	2500 2700 2500 2200
Wire Wire Line
	2500 2200 2600 2200
Text GLabel 1900 6700 0    50   BiDi ~ 0
fpgaspare15
Wire Wire Line
	1900 6700 2000 6700
Wire Wire Line
	2000 6700 2000 6500
Connection ~ 2000 6500
$Comp
L shim1:ICE40HX1KTQ144 U6
U 1 1 568B1211
P 9000 3900
F 0 "U6" H 9000 4100 60  0000 C CNN
F 1 "ICE40HX1KTQ144" H 9000 4000 60  0000 C CNN
F 2 "" H 9000 4000 60  0000 C CNN
F 3 "" H 9000 4000 60  0000 C CNN
F 4 "Lattice Semiconductor" H 9100 4200 60  0001 C CNN "Manuf"
F 5 "ICE40HX1K-TQ144" H 9200 4300 60  0001 C CNN "MPN"
	1    9000 3900
	1    0    0    -1  
$EndComp
$Comp
L shim1:ICE40HX1KTQ144 U6
U 2 1 568B12CA
P 9000 1100
F 0 "U6" H 9000 1300 60  0000 C CNN
F 1 "ICE40HX1KTQ144" H 9000 1200 60  0000 C CNN
F 2 "" H 9000 1200 60  0000 C CNN
F 3 "" H 9000 1200 60  0000 C CNN
F 4 "Lattice Semiconductor" H 9100 1400 60  0001 C CNN "Manuf"
F 5 "ICE40HX1K-TQ144" H 9200 1500 60  0001 C CNN "MPN"
	2    9000 1100
	1    0    0    -1  
$EndComp
$Comp
L shim1:ICE40HX1KTQ144 U6
U 3 1 568B1390
P 3400 1400
F 0 "U6" H 3400 1600 60  0000 C CNN
F 1 "ICE40HX1KTQ144" H 3400 1500 60  0000 C CNN
F 2 "" H 3400 1500 60  0000 C CNN
F 3 "" H 3400 1500 60  0000 C CNN
F 4 "Lattice Semiconductor" H 3500 1700 60  0001 C CNN "Manuf"
F 5 "ICE40HX1K-TQ144" H 3600 1800 60  0001 C CNN "MPN"
	3    3400 1400
	1    0    0    -1  
$EndComp
$Comp
L shim1:ICE40HX1KTQ144 U6
U 4 1 568B1468
P 3200 4000
F 0 "U6" H 3200 4200 60  0000 C CNN
F 1 "ICE40HX1KTQ144" H 3200 4100 60  0000 C CNN
F 2 "" H 3200 4100 60  0000 C CNN
F 3 "" H 3200 4100 60  0000 C CNN
F 4 "Lattice Semiconductor" H 3300 4300 60  0001 C CNN "Manuf"
F 5 "ICE40HX1K-TQ144" H 3400 4400 60  0001 C CNN "MPN"
	4    3200 4000
	1    0    0    -1  
$EndComp
Text GLabel 14900 2200 0    50   Input ~ 0
LEDVCC
Connection ~ 15050 7900
Connection ~ 15050 8200
Connection ~ 15050 7500
Connection ~ 15050 7800
Connection ~ 15050 7100
Connection ~ 15050 7400
Connection ~ 15050 6700
Connection ~ 15050 7000
Connection ~ 15050 6300
Connection ~ 15050 6600
Connection ~ 15050 5900
Connection ~ 15050 6200
Connection ~ 15050 5500
Connection ~ 15050 5800
Connection ~ 15050 5100
Connection ~ 15050 5400
Connection ~ 15050 4700
Connection ~ 15050 5000
Connection ~ 15050 4300
Connection ~ 15050 4600
Connection ~ 15050 3900
Connection ~ 15050 4200
Connection ~ 15050 3500
Connection ~ 15050 3800
Connection ~ 15050 3100
Connection ~ 15050 3400
Connection ~ 15050 2700
Connection ~ 15050 3000
Wire Wire Line
	15050 2200 14900 2200
Connection ~ 15050 2600
Text Notes 13175 2075 0    60   ~ 0
Programmable Neopixel RGB LEDs\npositioned around the periphery of the \nPCB
Wire Wire Line
	2100 2500 2600 2500
Wire Wire Line
	2000 2400 2600 2400
Wire Wire Line
	2500 1500 2500 1600
Wire Wire Line
	2000 1950 2000 2000
Wire Wire Line
	2100 4100 2100 4200
Wire Wire Line
	8000 1200 8000 1300
Wire Wire Line
	7400 1100 7400 1150
Wire Wire Line
	7600 1400 7600 1450
Wire Wire Line
	8000 4000 8000 4100
Wire Wire Line
	14550 8300 14700 8300
Wire Wire Line
	14550 2700 14700 2700
Wire Wire Line
	14550 3100 14700 3100
Wire Wire Line
	14550 3500 14700 3500
Wire Wire Line
	14550 3900 14700 3900
Wire Wire Line
	14550 4300 14700 4300
Wire Wire Line
	14550 4700 14700 4700
Wire Wire Line
	14550 5100 14700 5100
Wire Wire Line
	14550 5500 14700 5500
Wire Wire Line
	14550 5900 14700 5900
Wire Wire Line
	14550 6300 14700 6300
Wire Wire Line
	14550 6700 14700 6700
Wire Wire Line
	14550 7100 14700 7100
Wire Wire Line
	14550 7500 14700 7500
Wire Wire Line
	14550 7900 14700 7900
Wire Wire Line
	7400 3900 7400 3950
Wire Wire Line
	7600 4200 7600 4250
Wire Wire Line
	1400 1450 1400 1500
Wire Wire Line
	1600 1750 1600 1800
Wire Wire Line
	1400 4050 1400 4100
Wire Wire Line
	1600 4350 1600 4400
Wire Wire Line
	7750 6000 8200 6000
Wire Wire Line
	7850 5900 8200 5900
Wire Wire Line
	2000 6500 2200 6500
Wire Wire Line
	15050 7900 15050 8200
Wire Wire Line
	15050 8200 15050 8300
Wire Wire Line
	15050 7500 15050 7800
Wire Wire Line
	15050 7800 15050 7900
Wire Wire Line
	15050 7100 15050 7400
Wire Wire Line
	15050 7400 15050 7500
Wire Wire Line
	15050 6700 15050 7000
Wire Wire Line
	15050 7000 15050 7100
Wire Wire Line
	15050 6300 15050 6600
Wire Wire Line
	15050 6600 15050 6700
Wire Wire Line
	15050 5900 15050 6200
Wire Wire Line
	15050 6200 15050 6300
Wire Wire Line
	15050 5500 15050 5800
Wire Wire Line
	15050 5800 15050 5900
Wire Wire Line
	15050 5100 15050 5400
Wire Wire Line
	15050 5400 15050 5500
Wire Wire Line
	15050 4700 15050 5000
Wire Wire Line
	15050 5000 15050 5100
Wire Wire Line
	15050 4300 15050 4600
Wire Wire Line
	15050 4600 15050 4700
Wire Wire Line
	15050 3900 15050 4200
Wire Wire Line
	15050 4200 15050 4300
Wire Wire Line
	15050 3500 15050 3800
Wire Wire Line
	15050 3800 15050 3900
Wire Wire Line
	15050 3100 15050 3400
Wire Wire Line
	15050 3400 15050 3500
Wire Wire Line
	15050 2700 15050 3000
Wire Wire Line
	15050 3000 15050 3100
Wire Wire Line
	15050 2600 15050 2700
$EndSCHEMATC
